Dimension Reduction
…
# Principal components analysis

* Reduce the dimensionality of the data set through linear combinations of features `\(X_1, X_2, \ldots, X_p\)`
* Common purposes
    * Feature reduction
    * Reduce multicollinearity
    * Data visualization

---

# `USArrests`

```
## # A tibble: 50 x 5
##    State       Murder Assault UrbanPop  Rape
##    <chr>        <dbl>   <int>    <int> <dbl>
##  1 Alabama       13.2     236       58  21.2
##  2 Alaska        10       263       48  44.5
##  3 Arizona        8.1     294       80  31  
##  4 Arkansas       8.8     190       50  19.5
##  5 California     9       276       91  40.6
##  6 Colorado       7.9     204       78  38.7
##  7 Connecticut    3.3     110       77  11.1
##  8 Delaware       5.9     238       72  15.8
##  9 Florida       15.4     335       80  31.9
## 10 Georgia       17.4     211       60  25.8
## # … with 40 more rows
```
…
* Principal component vector
* Interpreting PC vectors

---

# Calculating PC scores

* Project `\(x_1, \ldots, x_n\)` onto eigenvector
* Calculate principal component scores

--

```
## # A tibble: 50 x 3
##    State           PC1     PC2
##    <chr>         <dbl>   <dbl>
##  1 Alabama      0.976  -1.12  
##  2 Alaska       1.93   -1.06  
##  3 Arizona      1.75    0.738 
##  4 Arkansas    -0.140  -1.11  
##  5 California   2.50    1.53  
##  6 Colorado     1.50    0.978 
##  7 Connecticut -1.34    1.08  
##  8 Delaware     0.0472  0.322 
##  9 Florida      2.98   -0.0388
## 10 Georgia      1.62   -1.27  
## # … with 40 more rows
```
…
]

---

# Import data

```
## # A tibble: 60,000 x 785
##       X1    X2    X3    X4    X5    X6    X7    X8    X9   X10   X11   X12
##    <dbl> <dbl> <dbl> <dbl> <dbl> <dbl> <dbl> <dbl> <dbl> <dbl> <dbl> <dbl>
##  1     5     0     0     0     0     0     0     0     0     0     0     0
##  2     0     0     0     0     0     0     0     0     0     0     0     0
##  3     4     0     0     0     0     0     0     0     0     0     0     0
##  4     1     0     0     0     0     0     0     0     0     0     0     0
##  5     9     0     0     0     0     0     0     0     0     0     0     0
##  6     2     0     0     0     0     0     0     0     0     0     0     0
##  7     1     0     0     0     0     0     0     0     0     0     0     0
##  8     3     0     0     0     0     0     0     0     0     0     0     0
##  9     1     0     0     0     0     0     0     0     0     0     0     0
## 10     4     0     0     0     0     0     0     0     0     0     0     0
## # … with 59,990 more rows, and 773 more variables: X13 <dbl>, X14 <dbl>,
## #   X15 <dbl>, X16 <dbl>, X17 <dbl>, X18 <dbl>, X19 <dbl>, X20 <dbl>,
## #   X21 <dbl>, X22 <dbl>, X23 <dbl>, X24 <dbl>, X25 <dbl>, X26 <dbl>,
## #   X27 <dbl>, X28 <dbl>, X29 <dbl>, X30 <dbl>, X31 <dbl>, X32 <dbl>,
## #   X33 <dbl>, X34 <dbl>, X35 <dbl>, X36 <dbl>, X37 <dbl>, X38 <dbl>,
## #   X39 <dbl>, X40 <dbl>, X41 <dbl>, X42 <dbl>, X43 <dbl>, X44 <dbl>,
## #   X45 <dbl>, X46 <dbl>, X47 <dbl>, X48 <dbl>, X49 <dbl>, X50 <dbl>,
## #   X51 <dbl>, X52 <dbl>, X53 <dbl>, X54 <dbl>, X55 <dbl>, X56 <dbl>,
## #   X57 <dbl>, X58 <dbl>, X59 <dbl>, X60 <dbl>, X61 <dbl>, X62 <dbl>,
…
* Estimate from LDA
    1. The topic mixtures of each document
    1. The words associated to each topic
---

# `USCongress`

```
## # A tibble: 4,449 x 7
##       ID  cong billnum h_or_sen major text                    label        
##    <int> <int>   <int> <fct>    <dbl> <chr>                   <chr>        
##  1     1   107    4499 HR          18 To suspend temporarily… Foreign trade
##  2     2   107    4500 HR          18 To suspend temporarily… Foreign trade
##  3     3   107    4501 HR          18 To suspend temporarily… Foreign trade
##  4     4   107    4502 HR          18 To reduce temporarily … Foreign trade
##  5     5   107    4503 HR           5 To amend the Immigrati… Labor and em…
##  6     6   107    4504 HR          21 To amend title 38, Uni… Public lands…
##  7     7   107    4505 HR          15 To repeal subtitle B o… Banking, fin…
##  8     8   107    4506 HR          18 To suspend temporarily… Foreign trade
##  9     9   107    4507 HR          18 To suspend temporarily… Foreign trade
## 10    10   107    4508 HR          18 To suspend temporarily… Foreign trade
## # … with 4,439 more rows
```

---

# `USCongress`

<img src="dimension-reduction_files/figure-html/plot-tf-idf-1.png" width="864" />

---

# 20 topic LDA model

```
## # A tibble: 102 x 3
##    topic term     beta
##    <int> <chr>   <dbl>
##  1     1 health 0.418 
##  2     1 care   0.182 
##  3     1 food   0.0896
##  4     1 human  0.0518
##  5     1 cosmet 0.0397
##  6     2 indian 0.0846
##  7     2 presid 0.0672
##  8     2 tribe  0.0545
##  9     2 war    0.0510
## 10     2 nativ  0.0487
## # … with 92 more rows
```
…
---

# Perplexity

<img src="dimension-reduction_files/figure-html/jokes_lda_compare_viz-1.png" width="864" />

---

# `\(k=100\)`

```
## # A tibble: 502 x 3
##    topic term         beta
##    <int> <chr>       <dbl>
##  1     1 women      0.191 
##  2     1 change     0.140 
##  3     1 light      0.115 
##  4     1 bulb       0.0665
##  5     1 lightbulb  0.0600
##  6     1 light bulb 0.0600
##  7     2 voice      0.0576
##  8     2 ladder     0.0383
##  9     2 quiet      0.0330
## 10     2 success    0.0296
## # … with 492 more rows
```
…
