More Classification Methods
…
* Predictor variables `\(X\)` are drawn from a multivariate Gaussian (aka *normal*) distribution 
* LDA assumes equality of covariances among the predictor variables `\(X\)` across each all levels of `\(Y\)`
* Require the number of predictor variables `\(p\)` to be less then the sample size `\(n\)`
    * Performance decline as `\(p\)` approaches `\(n\)`
* Flexibility of classifiers
    * Bias
    * Variance
    
---

# Running example

```
## # A tibble: 10,000 x 4
##    default student balance income
##    <fct>   <fct>     <dbl>  <dbl>
##  1 No      No         730. 44362.
##  2 No      Yes        817. 12106.
##  3 No      No        1074. 31767.
##  4 No      No         529. 35704.
##  5 No      No         786. 38463.
##  6 No      Yes        920.  7492.
##  7 No      No         826. 24905.
##  8 No      Yes        809. 17600.
##  9 No      No        1161. 37469.
## 10 No      No           0  29275.
## # … with 9,990 more rows
```
…
