Moving Beyond Linearity
…
    `$$X, X^2, X^3, h(X, \zeta_1), h(X, \zeta_2), \ldots, h(X, \zeta_K)$$`

* Degrees of freedom

---

# Spline basis representation

## `\(K = 4\)`

```
## # A tibble: 100 x 8
##        x        `1`     `2`       `3`    `4`      `5`   `6`    `7`
##    <dbl>      <dbl>   <dbl>     <dbl>  <dbl>    <dbl> <dbl>  <dbl>
##  1  3.56 0.0257     0.472   0.489     0.0138 0        0     0     
##  2  1.98 0.410      0.481   0.0865    0      0        0     0     
##  3  1.50 0.532      0.331   0.0363    0      0        0     0     
##  4  4.49 0.00000279 0.199   0.669     0.132  0        0     0     
##  5  8.73 0          0       0         0.0570 0.452    0.469 0.0220
##  6  8.21 0          0       0.0000143 0.176  0.622    0.202 0     
##  7  4.72 0          0.144   0.663     0.193  0.000150 0     0     
##  8  6.37 0          0.00122 0.220     0.642  0.136    0     0     
##  9  5.60 0          0.0275  0.473     0.473  0.0267   0     0     
## 10  8.96 0          0       0         0.0291 0.333    0.561 0.0765
## # … with 90 more rows
```
…
