Resampling methods
…
# LOOCV in linear regression

1. Obtain the analysis data set (i.e. the `\(N-1\)` training set)
1. Fit a linear regression model
1. Predict the validation data
1. Determine the MSE for each sample
1. Average the MSEs to obtain estimate of test MSE

---

# LOOCV in linear regression

```
## # A tibble: 392 x 4
##    splits          id         .estimator      mse
##    <list>          <chr>      <chr>         <dbl>
##  1 <split [391/1]> Resample1  standard    0.00355
##  2 <split [391/1]> Resample2  standard    1.25   
##  3 <split [391/1]> Resample3  standard   19.6    
##  4 <split [391/1]> Resample4  standard    2.42   
##  5 <split [391/1]> Resample5  standard   16.7    
##  6 <split [391/1]> Resample6  standard   97.0    
##  7 <split [391/1]> Resample7  standard   57.7    
##  8 <split [391/1]> Resample8  standard    1.77   
##  9 <split [391/1]> Resample9  standard   15.3    
## 10 <split [391/1]> Resample10 standard   24.2    
## # … with 382 more rows
```
…
