Support Vector Machines
…
---

# Benefits of kernels

* Do not need to enlarge the feature space
* Compute `\(K(x_i, x_{i'})\)` for all `\(\binom{n}{2}\)` distinct pairs `\(i, i'\)`
* `\(p\)` never changes

---

# Voter turnout

```
## # A tibble: 1,165 x 8
##    vote96 mhealth_sum   age  educ black female married inc10
##    <fct>        <dbl> <dbl> <dbl> <dbl>  <dbl>   <dbl> <dbl>
##  1 Yes              0    60    12     0      0       0  4.81
##  2 Yes              1    36    12     0      0       1  8.83
##  3 No               7    21    13     0      0       0  1.74
##  4 No               6    29    13     0      0       0 10.7 
##  5 Yes              1    41    15     1      1       1  8.83
##  6 Yes              2    48    20     0      0       1  8.83
##  7 No               9    20    12     0      1       0  7.22
##  8 No              12    27    11     0      1       0  1.20
##  9 Yes              2    28    16     0      0       1  7.22
## 10 Yes              0    72    14     0      0       1  4.01
## # … with 1,155 more rows
```
…
