Unsupervised Learning with Text Data
…
---

# Tokenize

```
## # A tibble: 1,131 x 6
##     Rank Song        Artist                          Year Source state_name
##    <dbl> <chr>       <chr>                          <dbl>  <dbl> <chr>     
##  1     1 uptown funk mark ronson featuring bruno m…  2015      1 this      
##  2     1 uptown funk mark ronson featuring bruno m…  2015      1 hit       
##  3     1 uptown funk mark ronson featuring bruno m…  2015      1 that      
##  4     1 uptown funk mark ronson featuring bruno m…  2015      1 ice       
##  5     1 uptown funk mark ronson featuring bruno m…  2015      1 cold      
##  6     1 uptown funk mark ronson featuring bruno m…  2015      1 michelle  
##  7     1 uptown funk mark ronson featuring bruno m…  2015      1 pfeiffer  
##  8     1 uptown funk mark ronson featuring bruno m…  2015      1 that      
##  9     1 uptown funk mark ronson featuring bruno m…  2015      1 white     
## 10     1 uptown funk mark ronson featuring bruno m…  2015      1 gold      
## # … with 1,121 more rows
```
…
--

* [Line in question](https://youtu.be/OPf0YbXqDm0?t=91)

---

# Find references to states

```
## # A tibble: 33 x 2
##    state_name      n
##    <chr>       <int>
##  1 new york       64
##  2 california     34
##  3 georgia        22
##  4 tennessee      14
##  5 texas          14
##  6 alabama        12
##  7 mississippi    10
##  8 kentucky        7
##  9 hawaii          6
## 10 illinois        6
## # … with 23 more rows
```
…
<img src="unsupervised-text_files/figure-html/state-map-1.png" width="864" />

---

# Sentiment analysis

> I am happy

---

# Bing dictionary

```
## # A tibble: 6,788 x 2
##    word        sentiment
##    <chr>       <chr>    
##  1 2-faced     negative 
##  2 2-faces     negative 
##  3 a+          positive 
##  4 abnormal    negative 
##  5 abolish     negative 
##  6 abominable  negative 
##  7 abominably  negative 
##  8 abominate   negative 
##  9 abomination negative 
## 10 abort       negative 
## # … with 6,778 more rows
```

---

# AFINN dictionary

```
## # A tibble: 2,476 x 2
##    word       score
##    <chr>      <int>
##  1 abandon       -2
##  2 abandoned     -2
##  3 abandons      -2
##  4 abducted      -2
##  5 abduction     -2
##  6 abductions    -2
##  7 abhor         -3
##  8 abhorred      -3
##  9 abhorrent     -3
## 10 abhors        -3
## # … with 2,466 more rows
```

---

# NRC dictionary

.pull-left[

```
## # A tibble: 13,901 x 2
##    word        sentiment
##    <chr>       <chr>    
##  1 abacus      trust    
##  2 abandon     fear     
##  3 abandon     negative 
##  4 abandon     sadness  
##  5 abandoned   anger    
##  6 abandoned   fear     
##  7 abandoned   negative 
##  8 abandoned   sadness  
##  9 abandonment anger    
## 10 abandonment fear     
## # … with 13,891 more rows
```
…
]

---

# Harry Potter

```
## # A tibble: 1,089,386 x 3
## # Groups:   book [7]
##    book               chapter word   
##    <fct>                <int> <chr>  
##  1 philosophers_stone       1 the    
##  2 philosophers_stone       1 boy    
##  3 philosophers_stone       1 who    
##  4 philosophers_stone       1 lived  
##  5 philosophers_stone       1 mr     
##  6 philosophers_stone       1 and    
##  7 philosophers_stone       1 mrs    
##  8 philosophers_stone       1 dursley
##  9 philosophers_stone       1 of     
## 10 philosophers_stone       1 number 
## # … with 1,089,376 more rows
```
…
* Estimate from LDA
    1. The topic mixtures of each document
    1. The words associated to each topic
---

# `USCongress`

```
## # A tibble: 4,449 x 7
##       ID  cong billnum h_or_sen major text                    label        
##    <int> <int>   <int> <fct>    <dbl> <chr>                   <chr>        
##  1     1   107    4499 HR          18 To suspend temporarily… Foreign trade
##  2     2   107    4500 HR          18 To suspend temporarily… Foreign trade
##  3     3   107    4501 HR          18 To suspend temporarily… Foreign trade
##  4     4   107    4502 HR          18 To reduce temporarily … Foreign trade
##  5     5   107    4503 HR           5 To amend the Immigrati… Labor and em…
##  6     6   107    4504 HR          21 To amend title 38, Uni… Public lands…
##  7     7   107    4505 HR          15 To repeal subtitle B o… Banking, fin…
##  8     8   107    4506 HR          18 To suspend temporarily… Foreign trade
##  9     9   107    4507 HR          18 To suspend temporarily… Foreign trade
## 10    10   107    4508 HR          18 To suspend temporarily… Foreign trade
## # … with 4,439 more rows
```
…
