…
2 Validation set

Even accounting for the training/test set split, one issue with using the same data to both fit and evaluate our model is that we will bias our model towards fitting the data that we have. We may fit our function to create the results we expect or desire, rather than the “true” function. Instead, we can further split our training set into distinct training and validation sets. The training set can be used repeatedly to train different models. We then use the validation set to evaluate the model’s performance, generating metrics such as the mean squared error (MSE) or the error rate. Unlike the test set, we are permitted to use the validation set multiple times. The important thing is that we do not use the validation set to train or fit the model, only evaluate its performance after it has been fit.

2.1 Regression

Here we will examine the relationship between horsepower and car mileage in the Auto dataset (found in library(ISLR)):

library(ISLR)

Auto <- as_tibble(Auto)
Auto

## # A tibble: 392 x 9
##      mpg cylinders displacement horsepower weight acceleration  year origin
##    <dbl>     <dbl>        <dbl>      <dbl>  <dbl>        <dbl> <dbl>  <dbl>
##  1    18         8          307        130   3504         12      70      1
##  2    15         8          350        165   3693         11.5    70      1
##  3    18         8          318        150   3436         11      70      1
##  4    16         8          304        150   3433         12      70      1
##  5    17         8          302        140   3449         10.5    70      1
##  6    15         8          429        198   4341         10      70      1
##  7    14         8          454        220   4354          9      70      1
##  8    14         8          440        215   4312          8.5    70      1
##  9    14         8          455        225   4425         10      70      1
## 10    15         8          390        190   3850          8.5    70      1
## # … with 382 more rows, and 1 more variable: name <fct>
…
\[CV_{(N)} = \frac{1}{N} \sum_{i = 1}^{N}{MSE_i}\]

This method produces estimates of the error rate that are approximately unbiased and are non-varying for a given dataset, unlike the validation set approach where the MSE estimate is highly dependent on the sampling process for training/validation sets. However it can have high variance because the \(N\) “training sets” are so similar to one another. LOOCV is also highly flexible and works with any kind of predictive modeling.

Of course the downside is that this method is computationally difficult. You have to estimate \(N\) different models - if you have a large \(N\) or each individual model takes a long time to compute, you may be stuck waiting a long time for the computer to finish its calculations.

3.1 LOOCV in linear regression

We can use the loo_cv() function in the rsample library to compute the LOOCV of any linear or logistic regression model. It takes a single argument: the data frame being cross-validated. For the Auto dataset, this looks like:

loocv_data <- loo_cv(Auto)
loocv_data

## # Leave-one-out cross-validation 
## # A tibble: 392 x 2
##    splits          id        
##    <list>          <chr>     
##  1 <split [391/1]> Resample1 
##  2 <split [391/1]> Resample2 
##  3 <split [391/1]> Resample3 
##  4 <split [391/1]> Resample4 
##  5 <split [391/1]> Resample5 
##  6 <split [391/1]> Resample6 
##  7 <split [391/1]> Resample7 
##  8 <split [391/1]> Resample8 
##  9 <split [391/1]> Resample9 
## 10 <split [391/1]> Resample10
## # … with 382 more rows

Each element of loocv_data$splits is an object of class rsplit. This is essentially an efficient container for storing both the analysis data (i.e. the training data set) and the assessment data (i.e. the validation data set). If we print the contents of a single rsplit object:

first_resample <- loocv_data$splits[[1]]
first_resample

## <391/1/392>

This tells us there are 391 observations in the analysis set, 1 observation in the assessment set, and the original data set contained 392 observations. To extract the analysis/assessment sets, use analysis() or assessment() respectively:

training(first_resample)

## # A tibble: 391 x 9
##      mpg cylinders displacement horsepower weight acceleration  year origin
##    <dbl>     <dbl>        <dbl>      <dbl>  <dbl>        <dbl> <dbl>  <dbl>
##  1    18         8          307        130   3504         12      70      1
##  2    15         8          350        165   3693         11.5    70      1
##  3    18         8          318        150   3436         11      70      1
##  4    16         8          304        150   3433         12      70      1
##  5    17         8          302        140   3449         10.5    70      1
##  6    15         8          429        198   4341         10      70      1
##  7    14         8          454        220   4354          9      70      1
##  8    14         8          440        215   4312          8.5    70      1
##  9    14         8          455        225   4425         10      70      1
## 10    15         8          390        190   3850          8.5    70      1
## # … with 381 more rows, and 1 more variable: name <fct>
…
## # A tibble: 1 x 3
##   .metric .estimator .estimate
##   <chr>   <chr>          <dbl>
## 1 mse     standard     0.00355

To compute the MSE for each heldout observation (i.e. estimate the test MSE for each of the \(N\) observations), we use the map() function from the purrr package to estimate the model for each training set, then calculate the MSE for each observation in each validation set:

loocv_data_poly1 <- loocv_data %>%
  mutate(results = map(splits, holdout_results)) %>%
  unnest(results) %>%
  spread(.metric, .estimate)
loocv_data_poly1

## # A tibble: 392 x 4
##    splits          id         .estimator      mse
##    <list>          <chr>      <chr>         <dbl>
##  1 <split [391/1]> Resample1  standard    0.00355
##  2 <split [391/1]> Resample2  standard    1.25   
##  3 <split [391/1]> Resample3  standard   19.6    
##  4 <split [391/1]> Resample4  standard    2.42   
##  5 <split [391/1]> Resample5  standard   16.7    
##  6 <split [391/1]> Resample6  standard   97.0    
##  7 <split [391/1]> Resample7  standard   57.7    
##  8 <split [391/1]> Resample8  standard    1.77   
##  9 <split [391/1]> Resample9  standard   15.3    
## 10 <split [391/1]> Resample10 standard   24.2    
## # … with 382 more rows
…
