…
(congress <- as_tibble(USCongress) %>%
    mutate(text = as.character(text)) %>%
    left_join(major_topics))

## Joining, by = "major"

## # A tibble: 4,449 x 7
##       ID  cong billnum h_or_sen major text                    label        
##    <int> <int>   <int> <fct>    <dbl> <chr>                   <chr>        
##  1     1   107    4499 HR          18 To suspend temporarily… Foreign trade
##  2     2   107    4500 HR          18 To suspend temporarily… Foreign trade
##  3     3   107    4501 HR          18 To suspend temporarily… Foreign trade
##  4     4   107    4502 HR          18 To reduce temporarily … Foreign trade
##  5     5   107    4503 HR           5 To amend the Immigrati… Labor and em…
##  6     6   107    4504 HR          21 To amend title 38, Uni… Public lands…
##  7     7   107    4505 HR          15 To repeal subtitle B o… Banking, fin…
##  8     8   107    4506 HR          18 To suspend temporarily… Foreign trade
##  9     9   107    4507 HR          18 To suspend temporarily… Foreign trade
## 10    10   107    4508 HR          18 To suspend temporarily… Foreign trade
## # … with 4,439 more rows

3.2 Convert to tidy text data frame

(congress_tokens <- congress %>%
   unnest_tokens(output = word, input = text) %>%
   # remove numbers
   filter(!str_detect(word, "^[0-9]*$")) %>%
   # remove stop words
   anti_join(stop_words) %>%
   # stem the words
   mutate(word = SnowballC::wordStem(word)))

## Joining, by = "word"

## # A tibble: 58,820 x 7
##       ID  cong billnum h_or_sen major label         word       
##    <int> <int>   <int> <fct>    <dbl> <chr>         <chr>      
##  1     1   107    4499 HR          18 Foreign trade suspend    
##  2     1   107    4499 HR          18 Foreign trade temporarili
##  3     1   107    4499 HR          18 Foreign trade duti       
##  4     1   107    4499 HR          18 Foreign trade fast       
##  5     1   107    4499 HR          18 Foreign trade magenta    
##  6     1   107    4499 HR          18 Foreign trade stage      
##  7     2   107    4500 HR          18 Foreign trade suspend    
##  8     2   107    4500 HR          18 Foreign trade temporarili
##  9     2   107    4500 HR          18 Foreign trade duti       
## 10     2   107    4500 HR          18 Foreign trade fast       
## # … with 58,810 more rows
…
## Joining, by = "word"

## <<DocumentTermMatrix (documents: 4319, terms: 787)>>
## Non-/sparse entries: 18149/3380904
## Sparsity           : 99%
## Maximal term length: 22
## Weighting          : term frequency (tf)

3.4 See overall structure

(congress_tfidf <- congress_tokens %>%
   count(label, word) %>%
   bind_tf_idf(term = word, document = label, n = n))

## # A tibble: 13,190 x 6
##    label       word        n       tf   idf    tf_idf
##    <chr>       <chr>   <int>    <dbl> <dbl>     <dbl>
##  1 Agriculture abund       2 0.00106  3.00  0.00317  
##  2 Agriculture access      1 0.000529 0.163 0.0000860
##  3 Agriculture account     1 0.000529 0.223 0.000118 
##  4 Agriculture acet        2 0.00106  2.30  0.00244  
##  5 Agriculture acid        2 0.00106  1.90  0.00201  
##  6 Agriculture acreag      1 0.000529 2.30  0.00122  
##  7 Agriculture act        59 0.0312   0     0        
##  8 Agriculture action      5 0.00265  0.598 0.00158  
##  9 Agriculture activ       2 0.00106  0.223 0.000236 
## 10 Agriculture actual      1 0.000529 1.90  0.00100  
## # … with 13,180 more rows
…
## A LDA_VEM topic model with 20 topics.

3.6 Compare LDA to supervised structure

congress_lda_td <- tidy(congress_lda)

top_terms <- congress_lda_td %>%
  group_by(topic) %>%
  top_n(5, beta) %>%
  ungroup() %>%
  arrange(topic, -beta)
top_terms

## # A tibble: 102 x 3
##    topic term     beta
##    <int> <chr>   <dbl>
##  1     1 health 0.418 
##  2     1 care   0.182 
##  3     1 food   0.0896
##  4     1 human  0.0518
##  5     1 cosmet 0.0397
##  6     2 indian 0.0846
##  7     2 presid 0.0672
##  8     2 tribe  0.0545
##  9     2 war    0.0510
## 10     2 nativ  0.0487
## # … with 92 more rows
…
Do we see unsupervised topics that match the supervised classification scheme?

3.7 Document classification

congress_gamma <- tidy(congress_lda, matrix = "gamma")
congress_gamma

## # A tibble: 86,380 x 3
##    document topic   gamma
##    <chr>    <int>   <dbl>
##  1 1            1 0.0186 
##  2 2            1 0.0165 
##  3 3            1 0.0248 
##  4 4            1 0.0298 
##  5 5            1 0.0213 
##  6 6            1 0.00990
##  7 7            1 0.0213 
##  8 8            1 0.0248 
##  9 9            1 0.0248 
## 10 10           1 0.0213 
## # … with 86,370 more rows
…
jokes_lda12 <- LDA(jokes_dtm, k = 12, control = list(seed = 1234))
jokes_lda12

## A LDA_VEM topic model with 12 topics.

jokes_lda12_td <- tidy(jokes_lda12)

top_terms <- jokes_lda12_td %>%
  group_by(topic) %>%
  top_n(5, beta) %>%
  ungroup() %>%
  arrange(topic, -beta)
top_terms

## # A tibble: 60 x 3
##    topic term      beta
##    <int> <chr>    <dbl>
##  1     1 girl    0.0418
##  2     1 black   0.0356
##  3     1 hear    0.0340
##  4     1 people  0.0262
##  5     1 baby    0.0207
##  6     2 wife    0.0697
##  7     2 husband 0.0367
##  8     2 blonde  0.0265
##  9     2 bear    0.0160
## 10     2 child   0.0150
## # … with 50 more rows
…
It looks like the 100-topic model has the lowest perplexity score. What kind of topics does this generate? Let’s look just at the first 12 topics produced by the model (ggplot2 has difficulty rendering a graph for 100 separate facets):

jokes_lda_td <- tidy(jokes_lda_compare[[6]])

top_terms <- jokes_lda_td %>%
  group_by(topic) %>%
  top_n(5, beta) %>%
  ungroup() %>%
  arrange(topic, -beta)
top_terms

## # A tibble: 502 x 3
##    topic term      beta
##    <int> <chr>    <dbl>
##  1     1 friend  0.268 
##  2     1 house   0.158 
##  3     1 baby    0.157 
##  4     1 penis   0.0640
##  5     1 beat    0.0457
##  6     2 green   0.0486
##  7     2 party   0.0431
##  8     2 wear    0.0426
##  9     2 golf    0.0361
## 10     2 wearing 0.0291
## # … with 492 more rows
…
