…
Both LDA and QDA assume the the predictor variables \(X\) are drawn from a multivariate Gaussian (aka normal) distribution.

LDA assumes equality of covariances among the predictor variables \(X\) across each all levels of \(Y\). This assumption is relaxed with the QDA model.

LDA and QDA require the number of predictor variables \(p\) to be less then the sample size \(n\). Furthermore, its important to keep in mind that performance will severely decline as \(p\) approaches \(n\). A simple rule of thumb is to use LDA & QDA on data sets where \[n \geq 5 \times p\].

Also, when considering between LDA & QDA its important to know that LDA is a much less flexible classifier than QDA, and so has substantially lower variance. This can potentially lead to improved prediction performance. But there is a trade-off: if LDA’s assumption that the predictor variable share a common variance across each \(Y\) response class is badly off, then LDA can suffer from high bias. Roughly speaking, LDA tends to be a better bet than QDA if there are relatively few training observations and so reducing variance is crucial. In contrast, QDA is recommended if the training set is very large, so that the variance of the classifier is not a major concern, or if the assumption of a common covariance matrix is clearly untenable.

2 Running example

These notes use the Default data provided by the ISLR package. This is a simulated data set containing information on ten thousand customers such as whether the customer defaulted, is a student, the average balance carried by the customer and the income of the customer.

(default <- as_tibble(ISLR::Default))

## # A tibble: 10,000 x 4
##    default student balance income
##    <fct>   <fct>     <dbl>  <dbl>
##  1 No      No         730. 44362.
##  2 No      Yes        817. 12106.
##  3 No      No        1074. 31767.
##  4 No      No         529. 35704.
##  5 No      No         786. 38463.
##  6 No      Yes        920.  7492.
##  7 No      No         826. 24905.
##  8 No      Yes        809. 17600.
##  9 No      No        1161. 37469.
## 10 No      No           0  29275.
## # … with 9,990 more rows
…
