…
Again, the relationship between age and the probability of survival is only weakly curvilinear, but you can already see that the first difference will depend on your initial starting value for age.

2.4 Estimating the parameters

Logistic regression is typically estimated using maximum likelihood estimation.

2.5 Generating predicted probabilities using add_predictions()

To visualise the predictions from a model, we start by generating an evenly spaced grid of values that covers the region where our data lies. First we use data_grid() from the modelr package to create a cleaned data frame of potential values:

titanic_age <- titanic %>%
  data_grid(Age)
titanic_age

## # A tibble: 88 x 1
##      Age
##    <dbl>
##  1  0.42
##  2  0.67
##  3  0.75
##  4  0.83
##  5  0.92
##  6  1   
##  7  2   
##  8  3   
##  9  4   
## 10  5   
## # … with 78 more rows

Next we use the add_predictions() function to produce the predicted probabilities. This worked very well for linear models; unfortunately it is not perfect for logistic regression because as you I mentioned above, logistic regression directly estimates the log-odds for the outcome. Instead, we want the plain old predicted probability. To do this, we use this custom function to convert from log-odds to predicted probabilties:6

logit2prob <- function(x){
  exp(x) / (1 + exp(x))
}

library(modelr)

titanic_age <- titanic_age %>%
  add_predictions(survive_age) %>%
  mutate(pred = logit2prob(pred))
titanic_age

## # A tibble: 88 x 2
##      Age  pred
##    <dbl> <dbl>
##  1  0.42 0.485
##  2  0.67 0.484
##  3  0.75 0.484
##  4  0.83 0.484
##  5  0.92 0.483
##  6  1    0.483
##  7  2    0.480
##  8  3    0.478
##  9  4    0.475
## 10  5    0.472
## # … with 78 more rows
…
The parameters essentially tell us the relationship between each individual predictor and the response, independent of other predictors. So this model tells us the relationship between age and survival, after controlling for the effects of sex. Likewise, it also tells us the relationship between sex and survival, after controlling for the effects of age. To get a better visualization of this, let’s use data_grid() and add_predictions() again:

titanic_age_sex <- titanic %>%
  data_grid(Age, Sex) %>%
  add_predictions(survive_age_woman) %>%
  mutate(pred = logit2prob(pred))
titanic_age_sex

## # A tibble: 176 x 3
##      Age Sex     pred
##    <dbl> <chr>  <dbl>
##  1  0.42 female 0.782
##  2  0.42 male   0.233
##  3  0.67 female 0.781
##  4  0.67 male   0.233
##  5  0.75 female 0.781
##  6  0.75 male   0.233
##  7  0.83 female 0.781
##  8  0.83 male   0.233
##  9  0.92 female 0.781
## 10  0.92 male   0.233
## # … with 166 more rows
…
Let’s plot the interactive effects of age and sex by estimating the log-odds and predicted probability of survival.

titanic_age_sex_x <- titanic %>%
  data_grid(Age, Sex) %>%
  add_predictions(survive_age_woman_x) %>%
  mutate(prob = logit2prob(pred))
titanic_age_sex_x

## # A tibble: 176 x 4
##      Age Sex      pred  prob
##    <dbl> <chr>   <dbl> <dbl>
##  1  0.42 female  0.602 0.646
##  2  0.42 male   -0.733 0.325
##  3  0.67 female  0.607 0.647
##  4  0.67 male   -0.738 0.323
##  5  0.75 female  0.609 0.648
##  6  0.75 male   -0.740 0.323
##  7  0.83 female  0.610 0.648
##  8  0.83 male   -0.742 0.323
##  9  0.92 female  0.612 0.648
## 10  0.92 male   -0.744 0.322
## # … with 166 more rows
…
Alternatively, you may see the function written

\[\Pr(X) = \frac{1}{1 + e^{-(\beta_0 + \beta_{1}X)}}\]↩

The threshold can be adjusted depending on how conservative or risky of a prediction you wish to make.↩

Alternatively, we can use broom::augment() to add predicted probabilities for the original dataset:

library(broom)

augment(survive_age, newdata = titanic, type.predict = "response") %>%
  as_tibble()

## # A tibble: 714 x 14
##    PassengerId Survived Pclass Name  Sex     Age SibSp Parch Ticket  Fare
##          <int>    <int>  <int> <chr> <chr> <dbl> <int> <int> <chr>  <dbl>
##  1           1        0      3 Brau… male     22     1     0 A/5 2…  7.25
##  2           2        1      1 Cumi… fema…    38     1     0 PC 17… 71.3 
##  3           3        1      3 Heik… fema…    26     0     0 STON/…  7.92
##  4           4        1      1 Futr… fema…    35     1     0 113803 53.1 
##  5           5        0      3 Alle… male     35     0     0 373450  8.05
##  6           7        0      1 McCa… male     54     0     0 17463  51.9 
##  7           8        0      3 Pals… male      2     3     1 349909 21.1 
##  8           9        1      3 John… fema…    27     0     2 347742 11.1 
##  9          10        1      2 Nass… fema…    14     1     0 237736 30.1 
## 10          11        1      3 Sand… fema…     4     1     1 PP 95… 16.7 
## # … with 704 more rows, and 4 more variables: Cabin <chr>, Embarked <chr>,
## #   .fitted <dbl>, .se.fit <dbl>
…
