…
So fitting a cubic spline to a data set with \(K\) knots requires least squares with an intercept and \(3 + K\) predictors

\[X, X^2, X^3, h(X, \zeta_1), h(X, \zeta_2), \ldots, h(X, \zeta_K)\]

where \(\zeta_1, \ldots, \zeta_K\) are the knots. This amounts to estimating a total of \(K + 4\) regression coefficients, and so fitting a cubic spline with \(K\) knots uses \(K+4\) degrees of freedom.

Notice how the model matrix is constructed when constructing a cubic spline with \(K = 4\) knots:

sim_piece %>%
  select(x) %>%
  bind_cols(splines = bs(sim_piece$x, df = 7) %>%
              as_tibble)

## # A tibble: 100 x 8
##         x    `1`   `2`     `3`    `4`   `5`        `6`   `7`
##     <dbl>  <dbl> <dbl>   <dbl>  <dbl> <dbl>      <dbl> <dbl>
##  1 1.14   0.499  0.416 0.0489  0      0     0          0    
##  2 6.22   0      0     0.0203  0.505  0.446 0.0288     0    
##  3 6.09   0      0     0.0293  0.539  0.412 0.0199     0    
##  4 6.23   0      0     0.0196  0.502  0.449 0.0297     0    
##  5 8.61   0      0     0       0.0253 0.271 0.568      0.136
##  6 6.40   0      0     0.0112  0.454  0.490 0.0450     0    
##  7 0.0950 0      0     0       0      0     0          0    
##  8 2.33   0.0326 0.528 0.428   0.0113 0     0          0    
##  9 6.66   0      0     0.00360 0.377  0.542 0.0773     0    
## 10 5.14   0      0     0.183   0.663  0.155 0.00000183 0    
## # … with 90 more rows
…
